{
  "name": "layer-hotkeys",
  "title": "Layer Hotkeys",
  "description": "Adds customizable hotkeys for switching between layers and tools.",
  "version": "1.7",
  "minimumCoreVersion": "0.6.0",
  "compatibleCoreVersion": "0.6.0",
  "author": "Moerill",
  "scripts": [
    "lib/settings-extender/settings-extender.js",
    "scripts/layer-hotkeys.js"
  ],
  "languages": [
    {
      "lang": "en",
      "name": "English",
      "path": "lang/en.json"
    }
  ],
  "url": "https://gitlab.com/moerills-fvtt-modules/layer-hotkeys",
  "manifest": "https://raw.githubusercontent.com/Moerill/Layer-Hotkeys/d6e5024c6a8a2ecee3c39798f39cf7af58807275/src/module.json",
  "download": "https://github.com/Moerill/Layer-Hotkeys/releases/download/v1.7.0/layer-hotkeys.zip"
}